…
\*El vector *co2* contiene medidas de **CO2** en la atmósfera, en
unidades de ppm, durante el periodo 1959-1997. El vector *year* contiene
sus años correspondientes."

``` r
archivo<- as_tibble(data.frame(co2, year))
archivo
```

    ## # A tibble: 39 x 2
    ##      co2  year
    ##    <dbl> <dbl>
    ##  1  316.  1959
    ##  2  317.  1960
    ##  3  317.  1961
    ##  4  318.  1962
    ##  5  319.  1963
    ##  6  319.  1964
    ##  7  320.  1965
    ##  8  321.  1966
    ##  9  322.  1967
    ## 10  323.  1968
    ## # ... with 29 more rows
…
